Animated Directional Chord Diagrams | Guy Abel
…
Recently I have been playing around tweenr and the magick packages for animated population pyramids. In this post I attempt to show how to use these packages to produce animated directional chord diagrams of global migration flow estimates

Data Prep

The first step is to read into R two data frames.

Time series of migration flows for animation:

# install.packages("migest")
library(tidyverse)
d0 <- read_csv(system.file("imr", "reg_flow.csv", package = "migest"))
d0 

## # A tibble: 891 x 4
##    year0     orig_reg                      dest_reg    flow
##    <int>        <chr>                         <chr>   <dbl>
##  1  1960       Africa                        Africa 1377791
##  2  1960       Africa                  Eastern Asia    5952
##  3  1960       Africa Eastern Europe & Central Asia    7303
##  4  1960       Africa                        Europe  919252
##  5  1960       Africa     Latin America & Caribbean   15796
##  6  1960       Africa              Northern America   82463
##  7  1960       Africa                       Oceania   32825
##  8  1960       Africa                 Southern Asia   35603
##  9  1960       Africa                  Western Asia  106580
## 10  1960 Eastern Asia                        Africa   37301
## # ... with 881 more rows
…
Tween Data

The next step is to tween the data by migration corridor.

library(tweenr)

d2 <- d0 %>%
  mutate(corridor = paste(orig_reg, dest_reg, sep = " -> ")) %>%
  select(corridor, year0, flow) %>%
  mutate(ease = "linear") %>%
  tween_elements(time = "year0", group = "corridor", ease = "ease", nframes = 100) %>%
  tbl_df()
d2

## # A tibble: 8,181 x 4
##    year0    flow .frame                                  .group
##  * <dbl>   <dbl>  <int>                                  <fctr>
##  1  1960 1377791      0                        Africa -> Africa
##  2  1960    5952      0                  Africa -> Eastern Asia
##  3  1960    7303      0 Africa -> Eastern Europe & Central Asia
##  4  1960  919252      0                        Africa -> Europe
##  5  1960   15796      0     Africa -> Latin America & Caribbean
##  6  1960   82463      0              Africa -> Northern America
##  7  1960   32825      0                       Africa -> Oceania
##  8  1960   35603      0                 Africa -> Southern Asia
##  9  1960  106580      0                  Africa -> Western Asia
## 10  1960   37301      0                  Eastern Asia -> Africa
## # ... with 8,171 more rows

This creates larger data frame than d0, with 100 counts for each corridor over the time period (in the original data there are only 11, one for each five-year period).

Then some further minor data wrangling are required to ready the data for plotting, primarily the first three columns in the data must correspond to the origin, destination and flow; the format required by the chordDiagram function when using a data frame.

d2 <- d2 %>%
  separate(col = .group, into = c("orig_reg", "dest_reg"), sep = " -> ") %>%
  select(orig_reg, dest_reg, flow, everything()) %>%
  mutate(flow = flow/1e06)
d2

## # A tibble: 8,181 x 5
##        orig_reg                      dest_reg     flow year0 .frame
##           <chr>                         <chr>    <dbl> <dbl>  <int>
##  1       Africa                        Africa 1.377791  1960      0
##  2       Africa                  Eastern Asia 0.005952  1960      0
##  3       Africa Eastern Europe & Central Asia 0.007303  1960      0
##  4       Africa                        Europe 0.919252  1960      0
##  5       Africa     Latin America & Caribbean 0.015796  1960      0
##  6       Africa              Northern America 0.082463  1960      0
##  7       Africa                       Oceania 0.032825  1960      0
##  8       Africa                 Southern Asia 0.035603  1960      0
##  9       Africa                  Western Asia 0.106580  1960      0
## 10 Eastern Asia                        Africa 0.037301  1960      0
## # ... with 8,171 more rows
…
gap_at_max is the size in degrees of the gaps in the flow matrix in the year where the flows are at their all time maximum.

gaps is the number of gaps in the chord diagram (i.e. the number of regions).

The function can be used to derive the size of gaps in each frame for a new animated GIF.

d3 <- d2 %>%
  group_by(.frame) %>%
  summarise(flow = sum(flow)) %>%
  mutate(gaps = scale_gap(flow_m = flow, flow_max = max(.$flow), 
                          gap_at_max = 4, gaps = 9))

d3

## # A tibble: 101 x 3
##    .frame     flow     gaps
##     <int>    <dbl>    <dbl>
##  1      0 17.63682 25.91515
##  2      1 17.84989 25.74499
##  3      2 18.06297 25.57483
##  4      3 18.27604 25.40467
##  5      4 18.48911 25.23451
##  6      5 18.70219 25.06435
##  7      6 18.91526 24.89418
##  8      7 19.12834 24.72402
##  9      8 19.34141 24.55386
## 10      9 19.55448 24.38370
## # ... with 91 more rows
…
