Animated Directional Chord Diagrams | Guy Abel
…
Data Prep

The first step is to read into R two data frames.

Time series of migration flows for animation (d0 below)

library(tidyverse)

# cahnge to migest when up on github

d0 <- read_csv("C:\\Users\\Guy\\Documents\\GitHub\\migest\\inst\\imr\\reg_flow.csv")
d0 

## # A tibble: 891 x 4
##    year0     orig_reg                      dest_reg    flow
##    <int>        <chr>                         <chr>   <dbl>
##  1  1960       Africa                        Africa 1377791
##  2  1960       Africa                  Eastern Asia    5952
##  3  1960       Africa Eastern Europe & Central Asia    7303
##  4  1960       Africa                        Europe  919252
##  5  1960       Africa     Latin America & Caribbean   15796
##  6  1960       Africa              Northern America   82463
##  7  1960       Africa                       Oceania   32825
##  8  1960       Africa                 Southern Asia   35603
##  9  1960       Africa                  Western Asia  106580
## 10  1960 Eastern Asia                        Africa   37301
## # ... with 881 more rows
…
Tween Data

The next step is to tween the data by migration corridor.

library(tweenr)
d2 <- d0 %>%
  mutate(corridor = paste(orig_reg, dest_reg, sep = " -> ")) %>%
  select(corridor, flow, year0) %>%
  mutate(ease = "linear") %>%
  tween_elements(time = "year0", group = "corridor", ease = "ease", nframes = 100) %>%
  tbl_df()
d2

## # A tibble: 8,181 x 4
##       flow year0 .frame                                  .group
##  *   <dbl> <dbl>  <int>                                  <fctr>
##  1 1377791  1960      0                        Africa -> Africa
##  2    5952  1960      0                  Africa -> Eastern Asia
##  3    7303  1960      0 Africa -> Eastern Europe & Central Asia
##  4  919252  1960      0                        Africa -> Europe
##  5   15796  1960      0     Africa -> Latin America & Caribbean
##  6   82463  1960      0              Africa -> Northern America
##  7   32825  1960      0                       Africa -> Oceania
##  8   35603  1960      0                 Africa -> Southern Asia
##  9  106580  1960      0                  Africa -> Western Asia
## 10   37301  1960      0                  Eastern Asia -> Africa
## # ... with 8,171 more rows
Then some further data work to ready the data for plotting, including

colour information from d1 to specify chord specifc colours in the plot later

ensure that the first three columns correspond to the origin, destination and flow; the format required by the chordDiagram function when using a data frame

d2 <- d2 %>%
  separate(col = .group, into = c("orig_reg", "dest_reg"), sep = " -> ") %>%
  left_join(select(d1, region, col1), by = c("orig_reg" = "region")) %>%
  rename(chord_col = col1) %>%
  select(orig_reg, dest_reg, flow, everything()) %>%
  mutate(flow = flow/1e06)
d2

## # A tibble: 8,181 x 6
##        orig_reg                      dest_reg     flow year0 .frame
##           <chr>                         <chr>    <dbl> <dbl>  <int>
##  1       Africa                        Africa 1.377791  1960      0
##  2       Africa                  Eastern Asia 0.005952  1960      0
##  3       Africa Eastern Europe & Central Asia 0.007303  1960      0
##  4       Africa                        Europe 0.919252  1960      0
##  5       Africa     Latin America & Caribbean 0.015796  1960      0
##  6       Africa              Northern America 0.082463  1960      0
##  7       Africa                       Oceania 0.032825  1960      0
##  8       Africa                 Southern Asia 0.035603  1960      0
##  9       Africa                  Western Asia 0.106580  1960      0
## 10 Eastern Asia                        Africa 0.037301  1960      0
## # ... with 8,171 more rows, and 1 more variables: chord_col <chr>
…
