…
```r
library(wpp2019)
data(popF)
data(popM)

d <- popM %>%
  mutate(sex = "Male") %>%
  bind_rows(popF) %>%
  replace_na(list(sex = "Female")) %>%
  pivot_longer(cols = "1950":"2020", names_to = "year", values_to = "pop000")
d
```

```
## # A tibble: 156,870 x 6
##    country_code name  age   sex   year   pop000
##           <int> <chr> <chr> <chr> <chr>   <dbl>
##  1          900 World 0-4   Male  1950  172420.
##  2          900 World 0-4   Male  1955  207941.
##  3          900 World 0-4   Male  1960  221606.
##  4          900 World 0-4   Male  1965  244985.
##  5          900 World 0-4   Male  1970  267293.
##  6          900 World 0-4   Male  1975  278289.
##  7          900 World 0-4   Male  1980  280164.
##  8          900 World 0-4   Male  1985  302397.
##  9          900 World 0-4   Male  1990  330649.
## 10          900 World 0-4   Male  1995  319726.
## # ... with 156,860 more rows
```
…
```
## # A tibble: 156,870 x 11
##    country_code name  age   sex    year  pop000 pop_m   pop age_mid pop_min
##           <int> <chr> <fct> <fct> <int>   <dbl> <dbl> <dbl>   <dbl>   <dbl>
##  1          900 World 0-4   Male   1950 172420.  172. -172.     2.5   -166.
##  2          900 World 0-4   Male   1955 207941.  208. -208.     2.5   -199.
##  3          900 World 0-4   Male   1960 221606.  222. -222.     2.5   -212.
##  4          900 World 0-4   Male   1965 244985.  245. -245.     2.5   -234.
##  5          900 World 0-4   Male   1970 267293.  267. -267.     2.5   -257.
##  6          900 World 0-4   Male   1975 278289.  278. -278.     2.5   -266.
##  7          900 World 0-4   Male   1980 280164.  280. -280.     2.5   -267.
##  8          900 World 0-4   Male   1985 302397.  302. -302.     2.5   -288.
##  9          900 World 0-4   Male   1990 330649.  331. -331.     2.5   -313.
## 10          900 World 0-4   Male   1995 319726.  320. -320.     2.5   -300.
## # ... with 156,860 more rows, and 1 more variable: pop_max <dbl>
```
